[
  {
    "data": "id",
    "title": "Id",
    "type": "text",
    "display": "true",
    "visbility": "true",
    "renderer": "text"
  },
  {
    "data": "name",
    "title": "Name",
    "type": "text",
    "display": "true",
    "visbility": "true",
    "renderer": "text"
  },
  {
    "data": "mobile",
    "title": "Mobile",
    "type": "text",
    "display": "true",
    "visbility": "true",
    "renderer": "text"
  },
  {
    "data": "address",
    "title": "Address",
    "type": "text",
    "display": "true",
    "visbility": "true",
    "renderer": "text"
  },
  {
    "data": "salary",
    "title": "Balance Amount",
    "type": "text",
    "display": "true",
    "visbility": "true",
    "renderer": "text"
  },
  {
    "data": "shop.name",
    "title": "Shop name",
    "type": "text",
    "display": "true",
    "visbility": "true",
    "renderer": "text"
  },
  {
    "data": "shop.id",
    "title": "Shop Id",
    "type": "text",
    "display": "true",
    "visbility": "true",
    "renderer": "text"
  },
  {
    "data": "edit",
    "title": "edit",
    "type": "text",
    "display": "true",
    "visbility": "true",
    "renderer": "text"
  }
]
