[
  {
    "data": "foodName",
    "title": "Food Name",
    "type": "String",
    "display": "true",
    "visbility": "true",
    "renderer": "text"
  },
  {
    "data": "description",
    "title": "Description",
    "type": "String",
    "display": "true",
    "visbility": "true",
    "renderer": "text"
  },
  {
    "data": "rating",
    "Rating": "Integer",
    "type": "String",
    "display": "true",
    "visbility": "true",
    "renderer": "text"
  }
]